{
  "items": [
    {
      "id": "p24a9c99a180f",
      "nombre": "Alexandra Moreno",
      "edad": 27,
      "ubicacion": "Carallaca",
      "fecha": "2026-06-24",
      "descripcion": "Está con su hija",
      "contacto": "0416-295-47-33",
      "foto": "https://reconexion-api-images-147455119818.s3.us-east-1.amazonaws.com/images/p6bad8079938e.jpg",
      "estado": "sin-contacto",
      "localizadoPor": null,
      "localizadoContacto": null,
      "localizadoRelacion": null,
      "localizadoNota": null,
      "reportada": false,
      "reportes": 0,
      "reportadaAt": null,
      "createdAt": 1782406097070,
      "updatedAt": 1782406097070
    },
    {
      "id": "p04e21618ec35",
      "nombre": "Dexy Materano",
      "edad": 45,
      "ubicacion": "Los cocos, La Guira",
      "fecha": "2026-06-25",
      "descripcion": "",
      "contacto": "Dorian Leiba 04242271235",
      "foto": "https://reconexion-api-images-147455119818.s3.us-east-1.amazonaws.com/images/pfbb1df6ef703.jpg",
      "estado": "sin-contacto",
      "localizadoPor": null,
      "localizadoContacto": null,
      "localizadoRelacion": null,
      "localizadoNota": null,
      "reportada": false,
      "reportes": 0,
      "reportadaAt": null,
      "createdAt": 1782406096945,
      "updatedAt": 1782406096945
    },
    {
      "id": "pfd9405356364",
      "nombre": "Antón Khun",
      "edad": 24,
      "ubicacion": "No lo sé",
      "fecha": "2026-06-24",
      "descripcion": "",
      "contacto": "Renee +34644823653",
      "foto": "https://reconexion-api-images-147455119818.s3.us-east-1.amazonaws.com/images/pc5a040e91869.jpg",
      "estado": "localizado",
      "localizadoPor": ".",
      "localizadoContacto": ".",
      "localizadoRelacion": ".",
      "localizadoNota": ".",
      "reportada": false,
      "reportes": 0,
      "reportadaAt": null,
      "createdAt": 1782364644999,
      "updatedAt": 1782406096548
    },
    {
      "id": "p693fbe3b9e19",
      "nombre": "Eliani Farias",
      "edad": 33,
      "ubicacion": "Catia la Mar",
      "fecha": "2026-06-24",
      "descripcion": "1.60 estatura, morena clara, cabello rojizo",
      "contacto": "ILEEN Cisneros 04168436542",
      "foto": "",
      "estado": "sin-contacto",
      "localizadoPor": null,
      "localizadoContacto": null,
      "localizadoRelacion": null,
      "localizadoNota": null,
      "reportada": false,
      "reportes": 0,
      "reportadaAt": null,
      "createdAt": 1782406096278,
      "updatedAt": 1782406096278
    },
    {
      "id": "p5e0e2731f6a9",
      "nombre": "María Josefina montano",
      "edad": 59,
      "ubicacion": "Los corales",
      "fecha": "2026-06-24",
      "descripcion": "",
      "contacto": "mayerling.rojas@gmail.com",
      "foto": "https://reconexion-api-images-147455119818.s3.us-east-1.amazonaws.com/images/p63a795b3bc92.jpg",
      "estado": "sin-contacto",
      "localizadoPor": null,
      "localizadoContacto": null,
      "localizadoRelacion": null,
      "localizadoNota": null,
      "reportada": false,
      "reportes": 0,
      "reportadaAt": null,
      "createdAt": 1782406096121,
      "updatedAt": 1782406096121
    },
    {
      "id": "p184f18fe37fd",
      "nombre": "Familia Escalona, Héctor , Anna , Ashley y Aaron",
      "edad": 44,
      "ubicacion": "La Guira",
      "fecha": "2026-06-24",
      "descripcion": "",
      "contacto": "04244953320",
      "foto": "https://reconexion-api-images-147455119818.s3.us-east-1.amazonaws.com/images/p917e20618f7d.jpg",
      "estado": "localizado",
      "localizadoPor": "Rossy",
      "localizadoContacto": "04122027286",
      "localizadoRelacion": "hermana de la mamá",
      "localizadoNota": null,
      "reportada": false,
      "reportes": 0,
      "reportadaAt": null,
      "createdAt": 1782401860964,
      "updatedAt": 1782406095392
    },
    {
      "id": "p745d3f0df99d",
      "nombre": "Frankie Mata",
      "edad": 55,
      "ubicacion": "Edificio puerto coral, Macuto, la Guaira, Venezuela",
      "fecha": "2026-06-24",
      "descripcion": "1:60 cm, moreno, con poco cabello",
      "contacto": "04129198823",
      "foto": "",
      "estado": "sin-contacto",
      "localizadoPor": null,
      "localizadoContacto": null,
      "localizadoRelacion": null,
      "localizadoNota": null,
      "reportada": false,
      "reportes": 0,
      "reportadaAt": null,
      "createdAt": 1782406095307,
      "updatedAt": 1782406095307
    },
    {
      "id": "pa9eebf031f61",
      "nombre": "DENNIS ELIAN BOLIVAR",
      "edad": 10,
      "ubicacion": "CARABALLEDA ALTO",
      "fecha": null,
      "descripcion": "",
      "contacto": "+34662647641",
      "foto": "",
      "estado": "sin-contacto",
      "localizadoPor": null,
      "localizadoContacto": null,
      "localizadoRelacion": null,
      "localizadoNota": null,
      "reportada": false,
      "reportes": 0,
      "reportadaAt": null,
      "createdAt": 1782406094843,
      "updatedAt": 1782406094843
    },
    {
      "id": "p950d8bc79a9b",
      "nombre": "Familia Blanco Roman",
      "edad": 37,
      "ubicacion": "Carballeda Sector Caribe, Torre G, piso 9, Apto 4",
      "fecha": "2026-06-24",
      "descripcion": "",
      "contacto": "Romulo Zapata+34664215911",
      "foto": "https://reconexion-api-images-147455119818.s3.us-east-1.amazonaws.com/images/p5f113bce89a9.jpg",
      "estado": "sin-contacto",
      "localizadoPor": null,
      "localizadoContacto": null,
      "localizadoRelacion": null,
      "localizadoNota": null,
      "reportada": false,
      "reportes": 0,
      "reportadaAt": null,
      "createdAt": 1782406094143,
      "updatedAt": 1782406094143
    },
    {
      "id": "p6705f8b021e2",
      "nombre": "Hualis Seijas",
      "edad": 47,
      "ubicacion": "La llanada estado La Guaira",
      "fecha": "2026-06-23",
      "descripcion": "1,60 de estatura, cabello negro, con textura rellenita, tiene 2 niños y don gemelos",
      "contacto": "Marlin Seijas 0424 3065536",
      "foto": "https://reconexion-api-images-147455119818.s3.us-east-1.amazonaws.com/images/p694d60f997ba.jpg",
      "estado": "sin-contacto",
      "localizadoPor": null,
      "localizadoContacto": null,
      "localizadoRelacion": null,
      "localizadoNota": null,
      "reportada": false,
      "reportes": 0,
      "reportadaAt": null,
      "createdAt": 1782406094131,
      "updatedAt": 1782406094131
    },
    {
      "id": "p9407510411bc",
      "nombre": "Andres armando altuve Saavedra",
      "edad": 57,
      "ubicacion": "Catia la Mar",
      "fecha": "2026-06-24",
      "descripcion": "1,67 de alto piel blanco cabello negro poco cabello, vestía casual",
      "contacto": "04247417664",
      "foto": "https://reconexion-api-images-147455119818.s3.us-east-1.amazonaws.com/images/pb7e0181ec8ac.jpg",
      "estado": "sin-contacto",
      "localizadoPor": null,
      "localizadoContacto": null,
      "localizadoRelacion": null,
      "localizadoNota": null,
      "reportada": false,
      "reportes": 0,
      "reportadaAt": null,
      "createdAt": 1782406091939,
      "updatedAt": 1782406091939
    },
    {
      "id": "pfe8cea22305c",
      "nombre": "Angel chavez",
      "edad": null,
      "ubicacion": "La Güaira",
      "fecha": null,
      "descripcion": "",
      "contacto": "04242054727 jeyson",
      "foto": "https://reconexion-api-images-147455119818.s3.us-east-1.amazonaws.com/images/pf7aaf9a1749b.jpg",
      "estado": "sin-contacto",
      "localizadoPor": null,
      "localizadoContacto": null,
      "localizadoRelacion": null,
      "localizadoNota": null,
      "reportada": false,
      "reportes": 0,
      "reportadaAt": null,
      "createdAt": 1782406090792,
      "updatedAt": 1782406090792
    },
    {
      "id": "p34f3fbc2b08a",
      "nombre": "tahnny toro",
      "edad": null,
      "ubicacion": "la guaira ,",
      "fecha": "2026-06-24",
      "descripcion": "",
      "contacto": "04241743293",
      "foto": "https://reconexion-api-images-147455119818.s3.us-east-1.amazonaws.com/images/p3d911f1b0561.jpg",
      "estado": "sin-contacto",
      "localizadoPor": null,
      "localizadoContacto": null,
      "localizadoRelacion": null,
      "localizadoNota": null,
      "reportada": false,
      "reportes": 0,
      "reportadaAt": null,
      "createdAt": 1782406090577,
      "updatedAt": 1782406090577
    },
    {
      "id": "pddd605abb529",
      "nombre": "Katy Perez",
      "edad": 40,
      "ubicacion": "Tanaguarena",
      "fecha": null,
      "descripcion": "Morena, bajita, pelo corto. Se encontraba con su hija Sophia Cardoza 14 años. 04241698021 - 04149887865",
      "contacto": "abg.andreas21@gmail.com",
      "foto": "https://reconexion-api-images-147455119818.s3.us-east-1.amazonaws.com/images/p7cd17af0720b.jpg",
      "estado": "localizado",
      "localizadoPor": "Andrea Silva",
      "localizadoContacto": "abg.andreas21@gmail.com",
      "localizadoRelacion": "Vecino",
      "localizadoNota": "Se sabe que aparecieron y estan con vida",
      "reportada": false,
      "reportes": 0,
      "reportadaAt": null,
      "createdAt": 1782397499611,
      "updatedAt": 1782406089304
    },
    {
      "id": "p0f9ec5f77a5a",
      "nombre": "Yeluismar lopez",
      "edad": null,
      "ubicacion": "Tucacas",
      "fecha": null,
      "descripcion": "",
      "contacto": "",
      "foto": "https://reconexion-api-images-147455119818.s3.us-east-1.amazonaws.com/images/p6b077a2b6136.jpg",
      "estado": "sin-contacto",
      "localizadoPor": null,
      "localizadoContacto": null,
      "localizadoRelacion": null,
      "localizadoNota": null,
      "reportada": false,
      "reportes": 0,
      "reportadaAt": null,
      "createdAt": 1782406088300,
      "updatedAt": 1782406088300
    },
    {
      "id": "p914db9838b1b",
      "nombre": "María Alejandra rosendo",
      "edad": 48,
      "ubicacion": "La Guaira sector playa grande urbanismo Hugo chavez",
      "fecha": "2026-06-25",
      "descripcion": "La Guaira sector playa grande urbanismo Hugo chavez",
      "contacto": "+5684820037",
      "foto": "https://reconexion-api-images-147455119818.s3.us-east-1.amazonaws.com/images/p52d52bcac902.jpg",
      "estado": "sin-contacto",
      "localizadoPor": null,
      "localizadoContacto": null,
      "localizadoRelacion": null,
      "localizadoNota": null,
      "reportada": false,
      "reportes": 0,
      "reportadaAt": null,
      "createdAt": 1782406088220,
      "updatedAt": 1782406088220
    },
    {
      "id": "p5aca3aca1eee",
      "nombre": "Guillermo Silva Acevedo",
      "edad": 50,
      "ubicacion": "Centro Caracas",
      "fecha": "2026-06-24",
      "descripcion": "Blanco 175 altura delgado",
      "contacto": "04247394855",
      "foto": "",
      "estado": "sin-contacto",
      "localizadoPor": null,
      "localizadoContacto": null,
      "localizadoRelacion": null,
      "localizadoNota": null,
      "reportada": false,
      "reportes": 0,
      "reportadaAt": null,
      "createdAt": 1782406086595,
      "updatedAt": 1782406086595
    },
    {
      "id": "p31f18a6eb75c",
      "nombre": "Érika Mendoza",
      "edad": 27,
      "ubicacion": "Corales de Caraballeda",
      "fecha": null,
      "descripcion": "",
      "contacto": "aymee.170297@gmail.com",
      "foto": "https://reconexion-api-images-147455119818.s3.us-east-1.amazonaws.com/images/p8a4adca6421c.jpg",
      "estado": "sin-contacto",
      "localizadoPor": null,
      "localizadoContacto": null,
      "localizadoRelacion": null,
      "localizadoNota": null,
      "reportada": false,
      "reportes": 0,
      "reportadaAt": null,
      "createdAt": 1782406085517,
      "updatedAt": 1782406085517
    },
    {
      "id": "pf69b5c95cdd8",
      "nombre": "Alejandra Amundarain",
      "edad": 18,
      "ubicacion": "Barrio aeropuerto",
      "fecha": "2026-06-24",
      "descripcion": "",
      "contacto": "+58 412-8822472",
      "foto": "https://reconexion-api-images-147455119818.s3.us-east-1.amazonaws.com/images/pbe9b38b7b219.jpg",
      "estado": "sin-contacto",
      "localizadoPor": null,
      "localizadoContacto": null,
      "localizadoRelacion": null,
      "localizadoNota": null,
      "reportada": false,
      "reportes": 0,
      "reportadaAt": null,
      "createdAt": 1782406084911,
      "updatedAt": 1782406084911
    },
    {
      "id": "p6b7c3843a117",
      "nombre": "Manuel Villarroel",
      "edad": 41,
      "ubicacion": "Macuto, hotel las quince letras, en la avenida la playa",
      "fecha": "2026-06-25",
      "descripcion": "Es bajito moreno contextura delgado  cédula: V 16.970.861",
      "contacto": "Oriana Villarroel +58 412-2922093",
      "foto": "",
      "estado": "sin-contacto",
      "localizadoPor": null,
      "localizadoContacto": null,
      "localizadoRelacion": null,
      "localizadoNota": null,
      "reportada": false,
      "reportes": 0,
      "reportadaAt": null,
      "createdAt": 1782406084822,
      "updatedAt": 1782406084822
    }
  ],
  "total": 38280,
  "page": 1,
  "pageSize": 20,
  "totalPages": 1914,
  "counts": {
    "total": 38280,
    "sinContacto": 35733,
    "localizado": 2547
  }
}